{
  "user": {
    "name": "Robert Covalsky",
    "avatar": "https://randomuser.me/api/portraits/men/10.jpg"
  },
  "company": {
    "logo": "https://logo.clearbit.com/segment.com",
    "name": "Adminator"
  },
  "navigation": [
    {
      "title": "Dashboard",
      "route": "/",
      "icon": "ti-home",
      "color": "c-blue-500",
      "active": true
    },
    {
      "title": "Email",
      "route": "/email",
      "icon": "ti-email",
      "color": "c-brown-500"
    },
    {
      "title": "Compose",
      "route": "/compose",
      "icon": "ti-share",
      "color": "c-blue-500"
    },
    {
      "title": "Calendar",
      "route": "/calendar",
      "icon": "ti-calendar",
      "color": "c-deep-orange-500"
    }
  ]
}
